src/hdl/gausselim-2016-12-08/systemize_tb/systemize_tb.vcd
$date
	Sat Mar 11 12:06:34 2023
$end
$version
	Icarus Verilog
$end
$timescale
	1ps
$end
$scope module systemize_tb $end
$var wire 1 ! done $end
$var reg 1 " clk $end
$var reg 1 # rst $end
$var reg 1 $ start $end
$var integer 32 % start_time [31:0] $end
$scope module DUT $end
$var wire 1 " clk $end
$var wire 1 # rst $end
$var wire 1 $ start $end
$var wire 1 & phase_done $end
$var wire 15 ' mem_op_out [14:0] $end
$var wire 5 ( mem_data_out [4:0] $end
$var reg 1 ! done $end
$var reg 1 ) last_phase $end
$var reg 4 * phase_counter [3:0] $end
$var reg 1 + running $end
$var reg 1 , start_phase $end
$scope module phase_inst $end
$var wire 1 " clk $end
$var wire 1 # rst $end
$var wire 1 , start $end
$var wire 4 - start_block [3:0] $end
$var wire 1 . step_done $end
$var wire 4 / step_counter_comp [3:0] $end
$var wire 15 0 mem_op_out [14:0] $end
$var wire 5 1 mem_data_out [4:0] $end
$var reg 4 2 col_block [3:0] $end
$var reg 1 & done $end
$var reg 1 3 functionA $end
$var reg 1 4 last_step $end
$var reg 1 5 running $end
$var reg 1 6 start_step $end
$var reg 4 7 step_counter [3:0] $end
$scope module step_inst $end
$var wire 1 " clk $end
$var wire 4 8 col_block [3:0] $end
$var wire 1 3 functionA $end
$var wire 5 9 mem_data_out [4:0] $end
$var wire 1 # rst $end
$var wire 1 6 start $end
$var wire 15 : mem_op_out [14:0] $end
$var wire 10 ; dout_op [9:0] $end
$var wire 5 < dout_data [4:0] $end
$var wire 1 = SA_r_A_and $end
$var wire 10 > SA_op_out [9:0] $end
$var wire 5 ? SA_dout [4:0] $end
$var reg 1 @ SA_data_en $end
$var reg 5 A SA_din [4:0] $end
$var reg 1 B SA_finish $end
$var reg 7 C SA_finish_end [6:0] $end
$var reg 1 D SA_op_en $end
$var reg 10 E SA_op_in [9:0] $end
$var reg 1 F SA_start $end
$var reg 7 G col_block_L [6:0] $end
$var reg 5 H din_data [4:0] $end
$var reg 10 I din_op [9:0] $end
$var reg 1 . done $end
$var reg 7 J end_counter [6:0] $end
$var reg 7 K end_row [6:0] $end
$var reg 1 L have_col_block_L $end
$var reg 6 M rd_addr_data [5:0] $end
$var reg 4 N rd_addr_op [3:0] $end
$var reg 1 O rd_en_data $end
$var reg 1 P rd_en_op $end
$var reg 4 Q rd_en_op_end [3:0] $end
$var reg 7 R row_counter [6:0] $end
$var reg 1 S running $end
$var reg 1 T start_comp $end
$var reg 1 U start_data $end
$var reg 7 V start_row [6:0] $end
$var reg 6 W wr_addr_data [5:0] $end
$var reg 4 X wr_addr_op [3:0] $end
$var reg 1 Y wr_en_data $end
$var reg 7 Z wr_en_data_end [6:0] $end
$var reg 7 [ wr_en_data_start [6:0] $end
$var reg 1 \ wr_en_op $end
$var reg 7 ] wr_en_op_end [6:0] $end
$scope module comb_SA_inst $end
$var wire 1 " clk $end
$var wire 5 ^ data [4:0] $end
$var wire 1 B finish $end
$var wire 1 3 functionA $end
$var wire 10 _ op_in [9:0] $end
$var wire 2 ` op_in_0_1 [1:0] $end
$var wire 2 a op_in_0_2 [1:0] $end
$var wire 2 b op_in_0_3 [1:0] $end
$var wire 2 c op_in_0_4 [1:0] $end
$var wire 2 d op_in_1_1 [1:0] $end
$var wire 2 e op_in_1_2 [1:0] $end
$var wire 2 f op_in_1_3 [1:0] $end
$var wire 2 g op_in_1_4 [1:0] $end
$var wire 2 h op_in_2_1 [1:0] $end
$var wire 2 i op_in_2_2 [1:0] $end
$var wire 2 j op_in_2_3 [1:0] $end
$var wire 2 k op_in_2_4 [1:0] $end
$var wire 2 l op_in_3_1 [1:0] $end
$var wire 2 m op_in_3_2 [1:0] $end
$var wire 2 n op_in_3_3 [1:0] $end
$var wire 2 o op_in_3_4 [1:0] $end
$var wire 2 p op_in_4_1 [1:0] $end
$var wire 2 q op_in_4_2 [1:0] $end
$var wire 2 r op_in_4_3 [1:0] $end
$var wire 2 s op_in_4_4 [1:0] $end
$var wire 1 = r_A_and $end
$var wire 1 # rst $end
$var wire 1 F start $end
$var wire 1 t start_in_0_0 $end
$var wire 1 u start_in_0_1 $end
$var wire 1 v start_in_0_2 $end
$var wire 1 w start_in_0_3 $end
$var wire 1 x start_in_0_4 $end
$var wire 1 y start_in_1_1 $end
$var wire 1 z start_in_1_2 $end
$var wire 1 { start_in_1_3 $end
$var wire 1 | start_in_1_4 $end
$var wire 1 } start_in_2_1 $end
$var wire 1 ~ start_in_2_2 $end
$var wire 1 !" start_in_2_3 $end
$var wire 1 "" start_in_2_4 $end
$var wire 1 #" start_in_3_1 $end
$var wire 1 $" start_in_3_2 $end
$var wire 1 %" start_in_3_3 $end
$var wire 1 &" start_in_3_4 $end
$var wire 1 '" start_in_4_1 $end
$var wire 1 (" start_in_4_2 $end
$var wire 1 )" start_in_4_3 $end
$var wire 1 *" start_in_4_4 $end
$var wire 1 +" start_out_4_4 $end
$var wire 1 ," start_out_4_3 $end
$var wire 1 -" start_out_4_2 $end
$var wire 1 ." start_out_4_1 $end
$var wire 1 /" start_out_4_0 $end
$var wire 1 0" start_out_3_4 $end
$var wire 1 1" start_out_3_3 $end
$var wire 1 2" start_out_3_2 $end
$var wire 1 3" start_out_3_1 $end
$var wire 1 4" start_out_3_0 $end
$var wire 1 5" start_out_2_4 $end
$var wire 1 6" start_out_2_3 $end
$var wire 1 7" start_out_2_2 $end
$var wire 1 8" start_out_2_1 $end
$var wire 1 9" start_out_2_0 $end
$var wire 1 :" start_out_1_4 $end
$var wire 1 ;" start_out_1_3 $end
$var wire 1 <" start_out_1_2 $end
$var wire 1 =" start_out_1_1 $end
$var wire 1 >" start_out_1_0 $end
$var wire 1 ?" start_out_0_4 $end
$var wire 1 @" start_out_0_3 $end
$var wire 1 A" start_out_0_2 $end
$var wire 1 B" start_out_0_1 $end
$var wire 1 C" start_out_0_0 $end
$var wire 1 D" start_in_4_0 $end
$var wire 1 E" start_in_3_0 $end
$var wire 1 F" start_in_2_0 $end
$var wire 1 G" start_in_1_0 $end
$var wire 1 H" r_4_4 $end
$var wire 1 I" r_3_3 $end
$var wire 1 J" r_2_2 $end
$var wire 1 K" r_1_1 $end
$var wire 1 L" r_0_0 $end
$var wire 2 M" op_out_4_4 [1:0] $end
$var wire 2 N" op_out_4_3 [1:0] $end
$var wire 2 O" op_out_4_2 [1:0] $end
$var wire 2 P" op_out_4_1 [1:0] $end
$var wire 2 Q" op_out_4_0 [1:0] $end
$var wire 2 R" op_out_3_4 [1:0] $end
$var wire 2 S" op_out_3_3 [1:0] $end
$var wire 2 T" op_out_3_2 [1:0] $end
$var wire 2 U" op_out_3_1 [1:0] $end
$var wire 2 V" op_out_3_0 [1:0] $end
$var wire 2 W" op_out_2_4 [1:0] $end
$var wire 2 X" op_out_2_3 [1:0] $end
$var wire 2 Y" op_out_2_2 [1:0] $end
$var wire 2 Z" op_out_2_1 [1:0] $end
$var wire 2 [" op_out_2_0 [1:0] $end
$var wire 2 \" op_out_1_4 [1:0] $end
$var wire 2 ]" op_out_1_3 [1:0] $end
$var wire 2 ^" op_out_1_2 [1:0] $end
$var wire 2 _" op_out_1_1 [1:0] $end
$var wire 2 `" op_out_1_0 [1:0] $end
$var wire 2 a" op_out_0_4 [1:0] $end
$var wire 2 b" op_out_0_3 [1:0] $end
$var wire 2 c" op_out_0_2 [1:0] $end
$var wire 2 d" op_out_0_1 [1:0] $end
$var wire 2 e" op_out_0_0 [1:0] $end
$var wire 10 f" op_out [9:0] $end
$var wire 2 g" op_in_4_0 [1:0] $end
$var wire 2 h" op_in_3_0 [1:0] $end
$var wire 2 i" op_in_2_0 [1:0] $end
$var wire 2 j" op_in_1_0 [1:0] $end
$var wire 2 k" op_in_0_0 [1:0] $end
$var wire 5 l" finish_out [4:0] $end
$var wire 1 m" data_out_4_4 $end
$var wire 1 n" data_out_4_3 $end
$var wire 1 o" data_out_4_2 $end
$var wire 1 p" data_out_4_1 $end
$var wire 1 q" data_out_4_0 $end
$var wire 1 r" data_out_3_4 $end
$var wire 1 s" data_out_3_3 $end
$var wire 1 t" data_out_3_2 $end
$var wire 1 u" data_out_3_1 $end
$var wire 1 v" data_out_3_0 $end
$var wire 1 w" data_out_2_4 $end
$var wire 1 x" data_out_2_3 $end
$var wire 1 y" data_out_2_2 $end
$var wire 1 z" data_out_2_1 $end
$var wire 1 {" data_out_2_0 $end
$var wire 1 |" data_out_1_4 $end
$var wire 1 }" data_out_1_3 $end
$var wire 1 ~" data_out_1_2 $end
$var wire 1 !# data_out_1_1 $end
$var wire 1 "# data_out_1_0 $end
$var wire 1 ## data_out_0_4 $end
$var wire 1 $# data_out_0_3 $end
$var wire 1 %# data_out_0_2 $end
$var wire 1 &# data_out_0_1 $end
$var wire 1 '# data_out_0_0 $end
$var wire 1 (# data_in_0_4 $end
$var wire 1 )# data_in_0_3 $end
$var wire 1 *# data_in_0_2 $end
$var wire 1 +# data_in_0_1 $end
$var wire 1 ,# data_in_0_0 $end
$var reg 1 -# data_in_1_0 $end
$var reg 1 .# data_in_1_1 $end
$var reg 1 /# data_in_1_2 $end
$var reg 1 0# data_in_1_3 $end
$var reg 1 1# data_in_1_4 $end
$var reg 1 2# data_in_2_0 $end
$var reg 1 3# data_in_2_1 $end
$var reg 1 4# data_in_2_2 $end
$var reg 1 5# data_in_2_3 $end
$var reg 1 6# data_in_2_4 $end
$var reg 1 7# data_in_3_0 $end
$var reg 1 8# data_in_3_1 $end
$var reg 1 9# data_in_3_2 $end
$var reg 1 :# data_in_3_3 $end
$var reg 1 ;# data_in_3_4 $end
$var reg 1 <# data_in_4_0 $end
$var reg 1 =# data_in_4_1 $end
$var reg 1 ># data_in_4_2 $end
$var reg 1 ?# data_in_4_3 $end
$var reg 1 @# data_in_4_4 $end
$var reg 5 A# data_out [4:0] $end
$var reg 4 B# finish_in [4:1] $end
$var reg 4 C# finish_tmp [4:1] $end
$var reg 5 D# functionA_dup [4:0] $end
$var reg 4 E# start_row [4:1] $end
$var reg 4 F# start_tmp [4:1] $end
$scope module AB_0_0 $end
$var wire 1 " clk $end
$var wire 1 ,# data_in $end
$var wire 1 B finish_in $end
$var wire 1 G# finish_out $end
$var wire 1 H# functionA $end
$var wire 2 I# op_in [1:0] $end
$var wire 1 # rst $end
$var wire 1 t start_in $end
$var wire 1 C" start_out $end
$var wire 1 J# r_reg $end
$var wire 2 K# op_out [1:0] $end
$var wire 1 '# data_out $end
$var reg 1 L" r $end
$upscope $end
$scope module AB_1_1 $end
$var wire 1 " clk $end
$var wire 1 .# data_in $end
$var wire 1 L# finish_in $end
$var wire 1 M# finish_out $end
$var wire 1 N# functionA $end
$var wire 2 O# op_in [1:0] $end
$var wire 1 # rst $end
$var wire 1 y start_in $end
$var wire 1 =" start_out $end
$var wire 1 P# r_reg $end
$var wire 2 Q# op_out [1:0] $end
$var wire 1 !# data_out $end
$var reg 1 K" r $end
$upscope $end
$scope module AB_2_2 $end
$var wire 1 " clk $end
$var wire 1 4# data_in $end
$var wire 1 R# finish_in $end
$var wire 1 S# finish_out $end
$var wire 1 T# functionA $end
$var wire 2 U# op_in [1:0] $end
$var wire 1 # rst $end
$var wire 1 ~ start_in $end
$var wire 1 7" start_out $end
$var wire 1 V# r_reg $end
$var wire 2 W# op_out [1:0] $end
$var wire 1 y" data_out $end
$var reg 1 J" r $end
$upscope $end
$scope module AB_3_3 $end
$var wire 1 " clk $end
$var wire 1 :# data_in $end
$var wire 1 X# finish_in $end
$var wire 1 Y# finish_out $end
$var wire 1 Z# functionA $end
$var wire 2 [# op_in [1:0] $end
$var wire 1 # rst $end
$var wire 1 %" start_in $end
$var wire 1 1" start_out $end
$var wire 1 \# r_reg $end
$var wire 2 ]# op_out [1:0] $end
$var wire 1 s" data_out $end
$var reg 1 I" r $end
$upscope $end
$scope module AB_4_4 $end
$var wire 1 " clk $end
$var wire 1 @# data_in $end
$var wire 1 ^# finish_in $end
$var wire 1 _# finish_out $end
$var wire 1 `# functionA $end
$var wire 2 a# op_in [1:0] $end
$var wire 1 # rst $end
$var wire 1 *" start_in $end
$var wire 1 +" start_out $end
$var wire 1 b# r_reg $end
$var wire 2 c# op_out [1:0] $end
$var wire 1 m" data_out $end
$var reg 1 H" r $end
$upscope $end
$scope module B_0_1 $end
$var wire 1 " clk $end
$var wire 1 +# data_in $end
$var wire 2 d# op_in [1:0] $end
$var wire 2 e# op_out [1:0] $end
$var wire 1 # rst $end
$var wire 1 u start_in $end
$var wire 1 B" start_out $end
$var wire 1 f# r_reg $end
$var wire 1 &# data_out $end
$var reg 1 g# r $end
$upscope $end
$scope module B_0_2 $end
$var wire 1 " clk $end
$var wire 1 *# data_in $end
$var wire 2 h# op_in [1:0] $end
$var wire 2 i# op_out [1:0] $end
$var wire 1 # rst $end
$var wire 1 v start_in $end
$var wire 1 A" start_out $end
$var wire 1 j# r_reg $end
$var wire 1 %# data_out $end
$var reg 1 k# r $end
$upscope $end
$scope module B_0_3 $end
$var wire 1 " clk $end
$var wire 1 )# data_in $end
$var wire 2 l# op_in [1:0] $end
$var wire 2 m# op_out [1:0] $end
$var wire 1 # rst $end
$var wire 1 w start_in $end
$var wire 1 @" start_out $end
$var wire 1 n# r_reg $end
$var wire 1 $# data_out $end
$var reg 1 o# r $end
$upscope $end
$scope module B_0_4 $end
$var wire 1 " clk $end
$var wire 1 (# data_in $end
$var wire 2 p# op_in [1:0] $end
$var wire 2 q# op_out [1:0] $end
$var wire 1 # rst $end
$var wire 1 x start_in $end
$var wire 1 ?" start_out $end
$var wire 1 r# r_reg $end
$var wire 1 ## data_out $end
$var reg 1 s# r $end
$upscope $end
$scope module B_1_0 $end
$var wire 1 " clk $end
$var wire 1 -# data_in $end
$var wire 2 t# op_in [1:0] $end
$var wire 2 u# op_out [1:0] $end
$var wire 1 # rst $end
$var wire 1 G" start_in $end
$var wire 1 >" start_out $end
$var wire 1 v# r_reg $end
$var wire 1 "# data_out $end
$var reg 1 w# r $end
$upscope $end
$scope module B_1_2 $end
$var wire 1 " clk $end
$var wire 1 /# data_in $end
$var wire 2 x# op_in [1:0] $end
$var wire 2 y# op_out [1:0] $end
$var wire 1 # rst $end
$var wire 1 z start_in $end
$var wire 1 <" start_out $end
$var wire 1 z# r_reg $end
$var wire 1 ~" data_out $end
$var reg 1 {# r $end
$upscope $end
$scope module B_1_3 $end
$var wire 1 " clk $end
$var wire 1 0# data_in $end
$var wire 2 |# op_in [1:0] $end
$var wire 2 }# op_out [1:0] $end
$var wire 1 # rst $end
$var wire 1 { start_in $end
$var wire 1 ;" start_out $end
$var wire 1 ~# r_reg $end
$var wire 1 }" data_out $end
$var reg 1 !$ r $end
$upscope $end
$scope module B_1_4 $end
$var wire 1 " clk $end
$var wire 1 1# data_in $end
$var wire 2 "$ op_in [1:0] $end
$var wire 2 #$ op_out [1:0] $end
$var wire 1 # rst $end
$var wire 1 | start_in $end
$var wire 1 :" start_out $end
$var wire 1 $$ r_reg $end
$var wire 1 |" data_out $end
$var reg 1 %$ r $end
$upscope $end
$scope module B_2_0 $end
$var wire 1 " clk $end
$var wire 1 2# data_in $end
$var wire 2 &$ op_in [1:0] $end
$var wire 2 '$ op_out [1:0] $end
$var wire 1 # rst $end
$var wire 1 F" start_in $end
$var wire 1 9" start_out $end
$var wire 1 ($ r_reg $end
$var wire 1 {" data_out $end
$var reg 1 )$ r $end
$upscope $end
$scope module B_2_1 $end
$var wire 1 " clk $end
$var wire 1 3# data_in $end
$var wire 2 *$ op_in [1:0] $end
$var wire 2 +$ op_out [1:0] $end
$var wire 1 # rst $end
$var wire 1 } start_in $end
$var wire 1 8" start_out $end
$var wire 1 ,$ r_reg $end
$var wire 1 z" data_out $end
$var reg 1 -$ r $end
$upscope $end
$scope module B_2_3 $end
$var wire 1 " clk $end
$var wire 1 5# data_in $end
$var wire 2 .$ op_in [1:0] $end
$var wire 2 /$ op_out [1:0] $end
$var wire 1 # rst $end
$var wire 1 !" start_in $end
$var wire 1 6" start_out $end
$var wire 1 0$ r_reg $end
$var wire 1 x" data_out $end
$var reg 1 1$ r $end
$upscope $end
$scope module B_2_4 $end
$var wire 1 " clk $end
$var wire 1 6# data_in $end
$var wire 2 2$ op_in [1:0] $end
$var wire 2 3$ op_out [1:0] $end
$var wire 1 # rst $end
$var wire 1 "" start_in $end
$var wire 1 5" start_out $end
$var wire 1 4$ r_reg $end
$var wire 1 w" data_out $end
$var reg 1 5$ r $end
$upscope $end
$scope module B_3_0 $end
$var wire 1 " clk $end
$var wire 1 7# data_in $end
$var wire 2 6$ op_in [1:0] $end
$var wire 2 7$ op_out [1:0] $end
$var wire 1 # rst $end
$var wire 1 E" start_in $end
$var wire 1 4" start_out $end
$var wire 1 8$ r_reg $end
$var wire 1 v" data_out $end
$var reg 1 9$ r $end
$upscope $end
$scope module B_3_1 $end
$var wire 1 " clk $end
$var wire 1 8# data_in $end
$var wire 2 :$ op_in [1:0] $end
$var wire 2 ;$ op_out [1:0] $end
$var wire 1 # rst $end
$var wire 1 #" start_in $end
$var wire 1 3" start_out $end
$var wire 1 <$ r_reg $end
$var wire 1 u" data_out $end
$var reg 1 =$ r $end
$upscope $end
$scope module B_3_2 $end
$var wire 1 " clk $end
$var wire 1 9# data_in $end
$var wire 2 >$ op_in [1:0] $end
$var wire 2 ?$ op_out [1:0] $end
$var wire 1 # rst $end
$var wire 1 $" start_in $end
$var wire 1 2" start_out $end
$var wire 1 @$ r_reg $end
$var wire 1 t" data_out $end
$var reg 1 A$ r $end
$upscope $end
$scope module B_3_4 $end
$var wire 1 " clk $end
$var wire 1 ;# data_in $end
$var wire 2 B$ op_in [1:0] $end
$var wire 2 C$ op_out [1:0] $end
$var wire 1 # rst $end
$var wire 1 &" start_in $end
$var wire 1 0" start_out $end
$var wire 1 D$ r_reg $end
$var wire 1 r" data_out $end
$var reg 1 E$ r $end
$upscope $end
$scope module B_4_0 $end
$var wire 1 " clk $end
$var wire 1 <# data_in $end
$var wire 2 F$ op_in [1:0] $end
$var wire 2 G$ op_out [1:0] $end
$var wire 1 # rst $end
$var wire 1 D" start_in $end
$var wire 1 /" start_out $end
$var wire 1 H$ r_reg $end
$var wire 1 q" data_out $end
$var reg 1 I$ r $end
$upscope $end
$scope module B_4_1 $end
$var wire 1 " clk $end
$var wire 1 =# data_in $end
$var wire 2 J$ op_in [1:0] $end
$var wire 2 K$ op_out [1:0] $end
$var wire 1 # rst $end
$var wire 1 '" start_in $end
$var wire 1 ." start_out $end
$var wire 1 L$ r_reg $end
$var wire 1 p" data_out $end
$var reg 1 M$ r $end
$upscope $end
$scope module B_4_2 $end
$var wire 1 " clk $end
$var wire 1 ># data_in $end
$var wire 2 N$ op_in [1:0] $end
$var wire 2 O$ op_out [1:0] $end
$var wire 1 # rst $end
$var wire 1 (" start_in $end
$var wire 1 -" start_out $end
$var wire 1 P$ r_reg $end
$var wire 1 o" data_out $end
$var reg 1 Q$ r $end
$upscope $end
$scope module B_4_3 $end
$var wire 1 " clk $end
$var wire 1 ?# data_in $end
$var wire 2 R$ op_in [1:0] $end
$var wire 2 S$ op_out [1:0] $end
$var wire 1 # rst $end
$var wire 1 )" start_in $end
$var wire 1 ," start_out $end
$var wire 1 T$ r_reg $end
$var wire 1 n" data_out $end
$var reg 1 U$ r $end
$upscope $end
$upscope $end
$scope module mem_data $end
$var wire 1 " clock $end
$var wire 5 V$ data [4:0] $end
$var wire 6 W$ rdaddress [5:0] $end
$var wire 1 O rden $end
$var wire 6 X$ wraddress [5:0] $end
$var wire 1 Y wren $end
$var reg 5 Y$ q [4:0] $end
$upscope $end
$scope module mem_op $end
$var wire 1 " clock $end
$var wire 10 Z$ data [9:0] $end
$var wire 4 [$ rdaddress [3:0] $end
$var wire 1 P rden $end
$var wire 4 \$ wraddress [3:0] $end
$var wire 1 \ wren $end
$var reg 10 ]$ q [9:0] $end
$upscope $end
$upscope $end
$upscope $end
$upscope $end
$upscope $end
$enddefinitions $end
#0
$dumpvars
bx ]$
bx \$
bx [$
bx Z$
bx Y$
bx X$
bx W$
bx V$
0U$
xT$
b0 S$
b0 R$
0Q$
xP$
b0 O$
b0 N$
0M$
xL$
b0 K$
b0 J$
0I$
xH$
b0 G$
b0 F$
0E$
xD$
b0 C$
b0 B$
0A$
x@$
b0 ?$
b0 >$
0=$
x<$
b0 ;$
b0 :$
09$
x8$
b0 7$
b0 6$
05$
x4$
b0 3$
b0 2$
01$
x0$
b0 /$
b0 .$
0-$
x,$
b0 +$
b0 *$
0)$
x($
b0 '$
b0 &$
0%$
x$$
b0 #$
b0 "$
0!$
x~#
b0 }#
b0 |#
0{#
xz#
b0 y#
b0 x#
0w#
xv#
b0 u#
b0 t#
0s#
0r#
b0 q#
b0 p#
0o#
0n#
b0 m#
b0 l#
0k#
0j#
b0 i#
b0 h#
0g#
0f#
b0 e#
b0 d#
b0 c#
xb#
b0 a#
0`#
x_#
x^#
b0 ]#
x\#
b0 [#
0Z#
xY#
xX#
b0 W#
xV#
b0 U#
0T#
xS#
xR#
b0 Q#
xP#
b0 O#
0N#
xM#
xL#
b0 K#
0J#
b0 I#
0H#
0G#
bx F#
bx E#
b0 D#
bx C#
bx B#
bx A#
x@#
x?#
x>#
x=#
x<#
x;#
x:#
x9#
x8#
x7#
x6#
x5#
x4#
x3#
x2#
x1#
x0#
x/#
x.#
x-#
0,#
0+#
0*#
0)#
0(#
0'#
0&#
0%#
0$#
0##
x"#
x!#
x~"
x}"
x|"
x{"
xz"
xy"
xx"
xw"
xv"
xu"
xt"
xs"
xr"
xq"
xp"
xo"
xn"
xm"
bx0 l"
b0 k"
b0 j"
b0 i"
b0 h"
b0 g"
b0 f"
b0 e"
b0 d"
b0 c"
b0 b"
b0 a"
b0 `"
b0 _"
b0 ^"
b0 ]"
b0 \"
b0 ["
b0 Z"
b0 Y"
b0 X"
b0 W"
b0 V"
b0 U"
b0 T"
b0 S"
b0 R"
b0 Q"
b0 P"
b0 O"
b0 N"
b0 M"
0L"
0K"
0J"
0I"
0H"
xG"
xF"
xE"
xD"
0C"
0B"
0A"
0@"
0?"
x>"
x="
x<"
x;"
x:"
x9"
x8"
x7"
x6"
x5"
x4"
x3"
x2"
x1"
x0"
x/"
x."
x-"
x,"
x+"
x*"
x)"
x("
x'"
x&"
x%"
x$"
x#"
x""
x!"
x~
x}
x|
x{
xz
xy
0x
0w
0v
0u
0t
b0 s
b0 r
b0 q
b0 p
b0 o
b0 n
b0 m
b0 l
b0 k
b0 j
b0 i
b0 h
b0 g
b0 f
b0 e
b0 d
b0 c
b0 b
b0 a
b0 `
b0 _
b0 ^
bx ]
0\
bx [
bx Z
xY
bx X
bx W
b0 V
0U
0T
0S
b0 R
bx Q
0P
0O
bx N
bx M
0L
b0 K
b0 J
bx I
bx H
b0 G
0F
b0 E
xD
bx C
0B
b0 A
x@
bx ?
b0 >
0=
bx <
bx ;
b0xxxxxxxxxx :
bx 9
b0 8
b0 7
06
05
x4
03
b0 2
bx 1
b0xxxxxxxxxx 0
b0 /
0.
b0 -
0,
0+
b0 *
x)
bx (
b0xxxxxxxxxx '
x&
bx %
0$
1#
1"
x!
$end
#5000
0"
#10000
x'#
0!#
x&#
x%#
x$#
x##
0|"
0}"
0~"
0"#
bx a"
bx q#
bx c
bx p#
bx b"
bx m#
bx b
bx l#
bx c"
bx i#
bx a
bx h#
bx d"
bx e#
bx `
bx d#
bx e"
bx K#
bx \"
bx #$
bx g
bx "$
bx ]"
bx }#
bx f
bx |#
bx ^"
bx y#
bx e
bx x#
bx _"
bx Q#
bx W"
bx 3$
bx k
bx 2$
bx X"
bx /$
bx j
bx .$
bx Y"
bx W#
bx R"
bx C$
bx o
bx B$
bx S"
bx ]#
bx >
bx f"
bx M"
bx c#
xr#
xn#
xj#
xf#
xJ#
bx k"
bx I#
bx d
bx O#
bx `"
bx u#
bx j"
bx t#
bx i
bx U#
bx Z"
bx +$
bx h
bx *$
bx ["
bx '$
bx i"
bx &$
bx n
bx [#
bx T"
bx ?$
bx m
bx >$
bx U"
bx ;$
bx l
bx :$
bx V"
bx 7$
bx h"
bx 6$
bx s
bx a#
bx N"
bx S$
bx r
bx R$
bx O"
bx O$
bx q
bx N$
bx P"
bx K$
bx p
bx J$
bx Q"
bx G$
bx g"
bx F$
x,#
x+#
x*#
x)#
x(#
0$$
0~#
0z#
0P#
0v#
1)
0&
04
x?"
xx
x@"
xw
xA"
xv
xB"
xu
xC"
xt
xF
b0 X
b0 \$
b0 I
b0 Z$
0D
b0 N
b0 [$
0@
b0 M
b0 W$
bx E
bx _
bx A
bx ^
01#
00#
0/#
0.#
0-#
bx0 C#
bx0 F#
1"
#15000
0"
#20000
0'#
x!#
0y"
0##
0$#
0%#
0&#
0w"
0x"
0J#
0V#
0z"
0{"
0f#
0j#
0n#
0r#
x|"
x}"
x~"
x"#
0($
0,$
00$
04$
b0 a"
b0 q#
b0 c
b0 p#
b0 b"
b0 m#
b0 b
b0 l#
b0 c"
b0 i#
b0 a
b0 h#
b0 d"
b0 e#
b0 `
b0 d#
b0 e"
b0 K#
b0 \"
b0 #$
b0 g
b0 "$
b0 ]"
b0 }#
b0 f
b0 |#
b0 ^"
b0 y#
b0 e
b0 x#
b0 _"
b0 Q#
b0 W"
b0 3$
b0 k
b0 2$
b0 X"
b0 /$
b0 j
b0 .$
b0 Y"
b0 W#
b0 R"
b0 C$
b0 o
b0 B$
b0 S"
b0 ]#
b0 >
b0 f"
b0 M"
b0 c#
bx00 l"
0M#
0L#
0:"
0|
0;"
0{
0<"
0z
0="
0y
0>"
0G"
0v#
0P#
0z#
0~#
0$$
b0 k"
b0 I#
b0 d
b0 O#
b0 `"
b0 u#
b0 j"
b0 t#
b0 i
b0 U#
b0 Z"
b0 +$
b0 h
b0 *$
b0 ["
b0 '$
b0 i"
b0 &$
b0 n
b0 [#
b0 T"
b0 ?$
b0 m
b0 >$
b0 U"
b0 ;$
b0 l
b0 :$
b0 V"
b0 7$
b0 h"
b0 6$
b0 s
b0 a#
b0 N"
b0 S$
b0 r
b0 R$
b0 O"
b0 O$
b0 q
b0 N$
b0 P"
b0 K$
b0 p
b0 J$
b0 Q"
b0 G$
b0 g"
b0 F$
0,#
0+#
0*#
0)#
0(#
bx0 B#
bx0 E#
bx F#
x-#
x.#
x/#
x0#
x1#
02#
03#
04#
05#
06#
0?"
0x
0@"
0w
0A"
0v
0B"
0u
0C"
0t
0F
bx I
bx Z$
b0 E
b0 _
b0 A
b0 ^
0!
1"
#25000
0"
#30000
0s"
xy"
0!#
0r"
0t"
0u"
0v"
xw"
xx"
xz"
x{"
0|"
0}"
0~"
0"#
0D$
0\#
0@$
0<$
08$
x4$
x0$
xV#
x,$
x($
x:"
x|
x;"
x{
x<"
xz
x="
xy
x>"
xG"
b0 I
b0 Z$
0;#
0:#
09#
08#
07#
x6#
x5#
x4#
x3#
x2#
01#
00#
0/#
0.#
0-#
bx00 C#
bx E#
bx00 F#
1"
#35000
0"
#40000
0y"
xs"
0m"
xv"
xu"
xt"
xr"
0q"
0p"
0o"
0n"
0w"
0x"
0z"
0{"
bx000 l"
0S#
0R#
05"
0""
06"
0!"
07"
0~
08"
0}
09"
0F"
0:"
0|
0;"
0{
0<"
0z
0="
0y
0>"
0G"
0($
0,$
0V#
00$
04$
x8$
x<$
x@$
x\#
xD$
0H$
0L$
0P$
0T$
0b#
bx00 B#
bx0 F#
bx00 E#
02#
03#
04#
05#
06#
x7#
x8#
x9#
x:#
x;#
0<#
0=#
0>#
0?#
0@#
1"
#45000
0"
#50000
xm"
0s"
xn"
xo"
xp"
xq"
0r"
0t"
0u"
0v"
xb#
xT$
xP$
xL$
xH$
0D$
0\#
0@$
0<$
08$
x5"
x""
x6"
x!"
x7"
x~
x8"
x}
x9"
xF"
b0 ?
b0 A#
x@#
x?#
x>#
x=#
x<#
0;#
0:#
09#
08#
07#
bx000 C#
bx0 E#
bx000 F#
0#
1"
#55000
0"
#60000
0q"
0p"
0o"
0n"
bx0000 l"
0Y#
0X#
00"
0&"
01"
0%"
02"
0$"
03"
0#"
04"
0E"
05"
0""
06"
0!"
07"
0~
08"
0}
09"
0F"
xH$
xL$
xP$
xT$
xb#
xI$
xM$
xQ$
xU$
xH"
bx000 B#
bx00 F#
bx000 E#
0<#
0=#
0>#
0?#
0@#
bx ?
bx A#
b0 H
b0 V$
1"
#65000
0"
#70000
x0"
x&"
x1"
x%"
x2"
x$"
x3"
x#"
x4"
xE"
bx H
bx V$
bx0000 ?
bx0000 A#
b0 C#
bx00 E#
b0 F#
1"
#75000
0"
#80000
0m"
b0 l"
0_#
0^#
0+"
0*"
0,"
0)"
0-"
0("
0."
0'"
0/"
0D"
00"
0&"
01"
0%"
02"
0$"
03"
0#"
04"
0E"
b0 B#
bx000 F#
b0 E#
bx0000 H
bx0000 V$
1"
#85000
0"
#90000
x+"
x*"
x,"
x)"
x-"
x("
x."
x'"
x/"
xD"
b0 ?
b0 A#
bx000 E#
b0 F#
1"
#95000
0"
#100000
0+"
0*"
0,"
0)"
0-"
0("
0."
0'"
0/"
0D"
b0 E#
b0 H
b0 V$
1"
#105000
0"
#110000
1"
#115000
0"
#120000
1"
#125000
0"
#130000
1"
#135000
0"
#140000
1"
#145000
0"
#150000
b10010110 %
1$
1"
#155000
0"
#160000
1+
1,
0$
1"
#165000
0"
#170000
0,
13
16
15
1"
#175000
0"
